{
  "db_name": "PostgreSQL",
  "query": "\n        SELECT owner_discord_id as discord_id, is_admin, is_banned, registered_timestamp, spoof_location_duration_minutes\n        FROM accounts\n        WHERE owner_discord_id = $1",
  "describe": {
    "columns": [
      {
        "ordinal": 0,
        "name": "discord_id",
        "type_info": "Int8"
      },
      {
        "ordinal": 1,
        "name": "is_admin",
        "type_info": "Bool"
      },
      {
        "ordinal": 2,
        "name": "is_banned",
        "type_info": "Bool"
      },
      {
        "ordinal": 3,
        "name": "registered_timestamp",
        "type_info": "Timestamptz"
      },
      {
        "ordinal": 4,
        "name": "spoof_location_duration_minutes",
        "type_info": "Int2"
      }
    ],
    "parameters": {
      "Left": [
        "Int8"
      ]
    },
    "nullable": [
      false,
      false,
      false,
      false,
      false
    ]
  },
  "hash": "080f06a55c014bdb41c43c0e860310ee6e58d96d7b3697a49e7b25a25e0398f6"
}
