{
  "db_name": "PostgreSQL",
  "query": "\n        INSERT INTO \"elite_kills\"\n        (interaction_index, killer, killer_squadron, killer_ship, killer_rank, victim, victim_squadron, victim_ship, victim_rank, kill_timestamp, hashed_token_creator, system_name, killer_power, victim_power)\n        VALUES\n        ($1               , $2    ,              $3,          $4,          $5,     $6,              $7,          $8,          $9,            $10,                  $11,         $12,          $13,          $14)\n        RETURNING (kill_id)\n        ",
  "describe": {
    "columns": [
      {
        "ordinal": 0,
        "name": "kill_id",
        "type_info": "Int4"
      }
    ],
    "parameters": {
      "Left": [
        "Varchar",
        "Varchar",
        "Bpchar",
        "Varchar",
        "Int2",
        "Varchar",
        "Bpchar",
        "Varchar",
        "Int2",
        "Timestamptz",
        "Bpchar",
        "Varchar",
        "Varchar",
        "Varchar"
      ]
    },
    "nullable": [
      false
    ]
  },
  "hash": "8646943b25ec57f8fac2ab7406bc80cda06381fadaba1aadc74d38b4f3b71a89"
}
