{
  "db_name": "PostgreSQL",
  "query": "\n    SELECT webhook_url, push_elite_weekly_deep_dive, push_elite_weekly\n    FROM webhooks\n    WHERE push_elite_weekly_deep_dive OR push_elite_weekly",
  "describe": {
    "columns": [
      {
        "ordinal": 0,
        "name": "webhook_url",
        "type_info": "Varchar"
      },
      {
        "ordinal": 1,
        "name": "push_elite_weekly_deep_dive",
        "type_info": "Bool"
      },
      {
        "ordinal": 2,
        "name": "push_elite_weekly",
        "type_info": "Bool"
      }
    ],
    "parameters": {
      "Left": []
    },
    "nullable": [
      false,
      false,
      false
    ]
  },
  "hash": "a00a104bef5356fe3698533a6353e7a92c220becd9f8e3254e3c951a31ecc27e"
}
