{
  "db_name": "PostgreSQL",
  "query": "\n        WITH last_20_weeks AS (\n            -- Generate week start times for the last 20 weeks (Thursday 8 AM UTC)\n            SELECT \n                generate_series(\n                    date_trunc('week', now() at TIME zone 'UTC' - interval '3 days 8 hours' ) + INTERVAL '3 days 8 hours' - INTERVAL '19 weeks', \n                    date_trunc('week', now() at TIME zone 'UTC' - interval '3 days 8 hours' ) + INTERVAL '3 days 8 hours', \n                    '1 week'\n                ) AT TIME ZONE 'UTC' AS week_start\n        ),\n        killer_stats AS (\n            SELECT \n                coalesce(COUNT(*), 0) AS kills, \n                date_trunc('week', ek.kill_timestamp) + INTERVAL '3 days 8 hours' AS week_start\n            FROM elite_kills_patched ek\n            WHERE lower(ek.killer) = lower($1)\n            GROUP BY week_start\n        ),\n        victim_stats AS (\n            SELECT \n                coalesce(COUNT(*), 0) AS deaths, \n                date_trunc('week', ek.kill_timestamp) + INTERVAL '3 days 8 hours' AS week_start\n            FROM elite_kills_patched ek\n            WHERE lower(ek.victim) = lower($1)\n            GROUP BY week_start\n        )\n        -- Perform LEFT JOIN with last 20 weeks series\n        SELECT \n            lw.week_start,\n            coalesce(ks.kills, 0) AS kills, \n            coalesce(vs.deaths, 0) AS deaths\n        FROM last_20_weeks lw\n        LEFT JOIN killer_stats ks ON lw.week_start = ks.week_start\n        LEFT JOIN victim_stats vs ON lw.week_start = vs.week_start\n        ORDER BY lw.week_start ASC;\n        ",
  "describe": {
    "columns": [
      {
        "ordinal": 0,
        "name": "week_start",
        "type_info": "Timestamptz"
      },
      {
        "ordinal": 1,
        "name": "kills",
        "type_info": "Int8"
      },
      {
        "ordinal": 2,
        "name": "deaths",
        "type_info": "Int8"
      }
    ],
    "parameters": {
      "Left": [
        "Text"
      ]
    },
    "nullable": [
      null,
      null,
      null
    ]
  },
  "hash": "af67b24f200ef04151f0de2246839d5387ed65dbe1c94ffa7c141a30fab73659"
}
