{
  "db_name": "PostgreSQL",
  "query": "\n            SELECT\n                kill_id, interaction_index, killer, killer_squadron, killer_rank, killer_ship, victim, victim_squadron, victim_ship, victim_rank, kill_timestamp, system_name, killer_power, victim_power\n            FROM elite_kills_patched ek\n            WHERE killer_power = $3 OR victim_power = $3\n            ORDER BY ek.kill_timestamp DESC\n            LIMIT $1\n            OFFSET $2",
  "describe": {
    "columns": [
      {
        "ordinal": 0,
        "name": "kill_id",
        "type_info": "Int4"
      },
      {
        "ordinal": 1,
        "name": "interaction_index",
        "type_info": "Varchar"
      },
      {
        "ordinal": 2,
        "name": "killer",
        "type_info": "Varchar"
      },
      {
        "ordinal": 3,
        "name": "killer_squadron",
        "type_info": "Bpchar"
      },
      {
        "ordinal": 4,
        "name": "killer_rank",
        "type_info": "Int2"
      },
      {
        "ordinal": 5,
        "name": "killer_ship",
        "type_info": "Varchar"
      },
      {
        "ordinal": 6,
        "name": "victim",
        "type_info": "Varchar"
      },
      {
        "ordinal": 7,
        "name": "victim_squadron",
        "type_info": "Bpchar"
      },
      {
        "ordinal": 8,
        "name": "victim_ship",
        "type_info": "Varchar"
      },
      {
        "ordinal": 9,
        "name": "victim_rank",
        "type_info": "Int2"
      },
      {
        "ordinal": 10,
        "name": "kill_timestamp",
        "type_info": "Timestamptz"
      },
      {
        "ordinal": 11,
        "name": "system_name",
        "type_info": "Varchar"
      },
      {
        "ordinal": 12,
        "name": "killer_power",
        "type_info": "Varchar"
      },
      {
        "ordinal": 13,
        "name": "victim_power",
        "type_info": "Varchar"
      }
    ],
    "parameters": {
      "Left": [
        "Int8",
        "Int8",
        "Text"
      ]
    },
    "nullable": [
      true,
      true,
      true,
      true,
      true,
      true,
      true,
      true,
      true,
      true,
      true,
      true,
      true,
      true
    ]
  },
  "hash": "224cfc233430e2d969a57fb30830a5f026674f43e8a65a4b8ed50acd07d5abc7"
}
