{
  "db_name": "PostgreSQL",
  "query": "\n            WITH tmp AS (\n                SELECT * \n                FROM elite_kills ek \n                WHERE (ek.kill_timestamp BETWEEN $1 AND $2) \n                AND (killer_power = $3 OR victim_power = $3) \n                AND (killer_power IS NOT NULL AND victim_power IS NOT NULL)\n                AND killer_power != victim_power\n            ),\n            unwrapped AS (\n                SELECT \n                    killer AS person,\n                    'kill' AS action\n                FROM tmp\n                WHERE killer_power = $3\n                UNION ALL\n                SELECT \n                    victim AS person,\n                    'death' AS action\n                FROM tmp\n                WHERE victim_power = $3\n            )\n            SELECT  \n                person,\n                COUNT(CASE WHEN action = 'kill' THEN 1 END) AS kill_count,\n                COUNT(CASE WHEN action = 'death' THEN 1 END) AS death_count\n            FROM unwrapped\n            GROUP BY person\n            ORDER BY kill_count DESC, death_count ASC\n            OFFSET $4\n            LIMIT $5\n            ",
  "describe": {
    "columns": [
      {
        "ordinal": 0,
        "name": "person",
        "type_info": "Varchar"
      },
      {
        "ordinal": 1,
        "name": "kill_count",
        "type_info": "Int8"
      },
      {
        "ordinal": 2,
        "name": "death_count",
        "type_info": "Int8"
      }
    ],
    "parameters": {
      "Left": [
        "Timestamptz",
        "Timestamptz",
        "Text",
        "Int8",
        "Int8"
      ]
    },
    "nullable": [
      null,
      null,
      null
    ]
  },
  "hash": "800b287933d1e9bd07c25b5d124f3fce30fa314c8964359222a95525135c24f7"
}
