{
  "db_name": "PostgreSQL",
  "query": "\n            INSERT INTO spoof_systems (cmdr_name, system_name, valid_until)\n            VALUES ($1, $2, $3) \n            ON CONFLICT (cmdr_name)\n            DO UPDATE SET\n                system_name = $2,\n                valid_until = $3;\n            ",
  "describe": {
    "columns": [],
    "parameters": {
      "Left": [
        "Varchar",
        "Varchar",
        "Timestamptz"
      ]
    },
    "nullable": []
  },
  "hash": "a1fd15a6bdfd8bb0ade18d204c7eb258002a014fe36814716763e2b8d255c202"
}
