{
  "db_name": "PostgreSQL",
  "query": "SELECT * FROM elite_kills",
  "describe": {
    "columns": [
      {
        "ordinal": 0,
        "name": "kill_id",
        "type_info": "Int4"
      },
      {
        "ordinal": 1,
        "name": "interaction_index",
        "type_info": "Varchar"
      },
      {
        "ordinal": 2,
        "name": "killer",
        "type_info": "Varchar"
      },
      {
        "ordinal": 3,
        "name": "killer_squadron",
        "type_info": "Bpchar"
      },
      {
        "ordinal": 4,
        "name": "killer_rank",
        "type_info": "Int2"
      },
      {
        "ordinal": 5,
        "name": "killer_ship",
        "type_info": "Varchar"
      },
      {
        "ordinal": 6,
        "name": "victim",
        "type_info": "Varchar"
      },
      {
        "ordinal": 7,
        "name": "victim_squadron",
        "type_info": "Bpchar"
      },
      {
        "ordinal": 8,
        "name": "victim_rank",
        "type_info": "Int2"
      },
      {
        "ordinal": 9,
        "name": "victim_ship",
        "type_info": "Varchar"
      },
      {
        "ordinal": 10,
        "name": "kill_timestamp",
        "type_info": "Timestamptz"
      },
      {
        "ordinal": 11,
        "name": "hashed_token_creator",
        "type_info": "Bpchar"
      },
      {
        "ordinal": 12,
        "name": "hashed_token_updater",
        "type_info": "Bpchar"
      },
      {
        "ordinal": 13,
        "name": "system_name",
        "type_info": "Varchar"
      },
      {
        "ordinal": 14,
        "name": "killer_power",
        "type_info": "Varchar"
      },
      {
        "ordinal": 15,
        "name": "victim_power",
        "type_info": "Varchar"
      }
    ],
    "parameters": {
      "Left": []
    },
    "nullable": [
      false,
      false,
      false,
      true,
      false,
      true,
      false,
      true,
      false,
      true,
      false,
      false,
      true,
      true,
      true,
      true
    ]
  },
  "hash": "2f9c5201af83f3fd36a2ee9b426fc212e3a71e9448d2663f057fdc0ebb8d4029"
}
